<?xml version="1.0" encoding="UTF-8"?>
<marc:collection xmlns:marc="http://www.loc.gov/MARC21/slim" xmlns:xsi="http://www.w3.org/2001/XMLSchema-instance" xsi:schemaLocation="http://www.loc.gov/MARC21/slim http://www.loc.gov/standards/marcxml/schema/MARC21slim.xsd">
	<marc:record>
		<marc:leader>00000cam a2200000   4500</marc:leader>
		<marc:controlfield tag="001">oersi:aHR0cDovL2VhcnRocXVha2UudXNncy5nb3YvZGF0YS9jcnVzdC9kb3dubG9hZC5waHA=</marc:controlfield>
		<marc:controlfield tag="005">00000000000000.0</marc:controlfield>
		<marc:controlfield tag="007">cr</marc:controlfield>
		<marc:controlfield tag="008">240228t||||||||xx#|||||o|||||||||||eng||</marc:controlfield>
		<marc:datafield tag="040" ind1=" " ind2=" ">
			<marc:subfield code="b">eng</marc:subfield>
		</marc:datafield>
		<marc:datafield tag="245" ind1="0" ind2="0">
			<marc:subfield code="a">Mächtigkeit der Erdkruste</marc:subfield>
		</marc:datafield>
		<marc:datafield tag="300" ind1=" " ind2=" ">
			<marc:subfield code="a">1 Online-Ressource</marc:subfield>
		</marc:datafield>
		<marc:datafield tag="336" ind1=" " ind2=" ">
			<marc:subfield code="a">still image</marc:subfield>
			<marc:subfield code="b">sti</marc:subfield>
			<marc:subfield code="2">rdacontent</marc:subfield>
		</marc:datafield>
		<marc:datafield tag="337" ind1=" " ind2=" ">
			<marc:subfield code="a">computer</marc:subfield>
			<marc:subfield code="b">c</marc:subfield>
			<marc:subfield code="2">rdamedia</marc:subfield>
		</marc:datafield>
		<marc:datafield tag="338" ind1=" " ind2=" ">
			<marc:subfield code="a">online resource</marc:subfield>
			<marc:subfield code="b">cr</marc:subfield>
			<marc:subfield code="2">rdacarrier</marc:subfield>
		</marc:datafield>
		<marc:datafield tag="506" ind1=" " ind2=" ">
			<marc:subfield code="a">keine Anmeldung erforderlich</marc:subfield>
		</marc:datafield>
		<marc:datafield tag="520" ind1="2" ind2=" ">
			<marc:subfield code="a">Verschiedene Karten, die die Mächtigkeit der Erdkruste zeigen</marc:subfield>
		</marc:datafield>
		<marc:datafield tag="650" ind1=" " ind2="4">
			<marc:subfield code="a">Geowissenschaften (ohne Geographie)</marc:subfield>
			<marc:subfield code="0">https://w3id.org/kim/hochschulfaechersystematik/n43</marc:subfield>
		</marc:datafield>
		<marc:datafield tag="650" ind1=" " ind2="4">
			<marc:subfield code="a">Mathematik, Naturwissenschaften</marc:subfield>
			<marc:subfield code="0">https://w3id.org/kim/hochschulfaechersystematik/n4</marc:subfield>
		</marc:datafield>
		<marc:datafield tag="653" ind1=" " ind2=" ">
			<marc:subfield code="a">Aufbau der Erde</marc:subfield>
		</marc:datafield>
		<marc:datafield tag="653" ind1=" " ind2=" ">
			<marc:subfield code="a">Seismologie (Erdbebenkunde)</marc:subfield>
		</marc:datafield>
		<marc:datafield tag="653" ind1=" " ind2=" ">
			<marc:subfield code="a">Erdkruste (Erdrinde)</marc:subfield>
		</marc:datafield>
		<marc:datafield tag="655" ind1=" " ind2="4">
			<marc:subfield code="a">Abbildung</marc:subfield>
		</marc:datafield>
		<marc:datafield tag="655" ind1=" " ind2="7">
			<marc:subfield code="a">Bild</marc:subfield>
			<marc:subfield code="0">(DE-588)4006568-6</marc:subfield>
			<marc:subfield code="2">gnd-content</marc:subfield>
		</marc:datafield>
		<marc:datafield tag="856" ind1="4" ind2="0">
			<marc:subfield code="u">https://oersi.org/resources/aHR0cDovL2VhcnRocXVha2UudXNncy5nb3YvZGF0YS9jcnVzdC9kb3dubG9hZC5waHA=</marc:subfield>
			<marc:subfield code="x">Aggregator</marc:subfield>
			<marc:subfield code="z">kostenfrei</marc:subfield>
		</marc:datafield>
		<marc:datafield tag="856" ind1="4" ind2="0">
			<marc:subfield code="u">http://earthquake.usgs.gov/data/crust/download.php</marc:subfield>
			<marc:subfield code="r">https://creativecommons.org/publicdomain/zero/1.0/deed.en</marc:subfield>
			<marc:subfield code="z">kostenfrei</marc:subfield>
			<marc:subfield code="7">0</marc:subfield>
		</marc:datafield>
		<marc:datafield tag="856" ind1="4" ind2="0">
			<marc:subfield code="u">https://www.oerbw.de/edu-sharing/components/render/17f729bb-9243-494b-aec8-a298dbd1a721</marc:subfield>
			<marc:subfield code="r">https://creativecommons.org/publicdomain/zero/1.0/deed.en</marc:subfield>
			<marc:subfield code="z">kostenfrei</marc:subfield>
			<marc:subfield code="7">0</marc:subfield>
		</marc:datafield>
		<marc:datafield tag="380" ind1=" " ind2=" ">
			<marc:subfield code="a">Open educational resources</marc:subfield>
			<marc:subfield code="2">lcsh</marc:subfield>
		</marc:datafield>
		<marc:datafield tag="653" ind1=" " ind2="6">
			<marc:subfield code="a">OER</marc:subfield>
		</marc:datafield>
		<marc:datafield tag="655" ind1=" " ind2="0">
			<marc:subfield code="a">Open educational resources</marc:subfield>
		</marc:datafield>
	</marc:record>

</marc:collection>
