<?xml version="1.0" encoding="UTF-8"?>
<marc:collection xmlns:marc="http://www.loc.gov/MARC21/slim" xmlns:xsi="http://www.w3.org/2001/XMLSchema-instance" xsi:schemaLocation="http://www.loc.gov/MARC21/slim http://www.loc.gov/standards/marcxml/schema/MARC21slim.xsd">
	<marc:record>
		<marc:leader>00000cgm a2200000   4500</marc:leader>
		<marc:controlfield tag="001">oersi:aHR0cHM6Ly93d3cueW91dHViZS5jb20vd2F0Y2g_dj1kYUxnc1BTdkQ5QQ==</marc:controlfield>
		<marc:controlfield tag="005">00000000000000.0</marc:controlfield>
		<marc:controlfield tag="007">cr</marc:controlfield>
		<marc:controlfield tag="008">240228t2024||||xx#|||||o|||||||||||ger||</marc:controlfield>
		<marc:datafield tag="264" ind1=" " ind2="0">
			<marc:subfield code="c">2024</marc:subfield>
		</marc:datafield>
		<marc:datafield tag="040" ind1=" " ind2=" ">
			<marc:subfield code="b">ger</marc:subfield>
		</marc:datafield>
		<marc:datafield tag="245" ind1="0" ind2="0">
			<marc:subfield code="a">ArcGIS Pro: In einer Karte zurechtfinden | Tutorial</marc:subfield>
		</marc:datafield>
		<marc:datafield tag="300" ind1=" " ind2=" ">
			<marc:subfield code="a">1 Online-Ressource</marc:subfield>
		</marc:datafield>
		<marc:datafield tag="336" ind1=" " ind2=" ">
			<marc:subfield code="a">two-dimensional moving image</marc:subfield>
			<marc:subfield code="b">tdi</marc:subfield>
			<marc:subfield code="2">rdacontent</marc:subfield>
		</marc:datafield>
		<marc:datafield tag="337" ind1=" " ind2=" ">
			<marc:subfield code="a">computer</marc:subfield>
			<marc:subfield code="b">c</marc:subfield>
			<marc:subfield code="2">rdamedia</marc:subfield>
		</marc:datafield>
		<marc:datafield tag="338" ind1=" " ind2=" ">
			<marc:subfield code="a">online resource</marc:subfield>
			<marc:subfield code="b">cr</marc:subfield>
			<marc:subfield code="2">rdacarrier</marc:subfield>
		</marc:datafield>
		<marc:datafield tag="506" ind1=" " ind2=" ">
			<marc:subfield code="a">keine Anmeldung erforderlich</marc:subfield>
		</marc:datafield>
		<marc:datafield tag="520" ind1="2" ind2=" ">
			<marc:subfield code="a">In diesem Tutorial lernst du die wichtigsten Werkzeuge kennen, die dir dabei helfen, dich in einer Karte zurechtzufinden. Kapitel 00:00 Einleitung 00:10 Vorabinfo 00:23 Erkunden 01:00 Suche 01:20 Lesezeichen 01:36 Maßstab 01:47 Layer erkunden 02:10 Auf Layer zoomen 02:26 Abspann</marc:subfield>
		</marc:datafield>
		<marc:datafield tag="650" ind1=" " ind2="4">
			<marc:subfield code="a">Studienbereich Informatik</marc:subfield>
			<marc:subfield code="0">https://w3id.org/kim/hochschulfaechersystematik/n71</marc:subfield>
		</marc:datafield>
		<marc:datafield tag="650" ind1=" " ind2="4">
			<marc:subfield code="a">Geographie</marc:subfield>
			<marc:subfield code="0">https://w3id.org/kim/hochschulfaechersystematik/n44</marc:subfield>
		</marc:datafield>
		<marc:datafield tag="650" ind1=" " ind2="4">
			<marc:subfield code="a">Geowissenschaften (ohne Geographie)</marc:subfield>
			<marc:subfield code="0">https://w3id.org/kim/hochschulfaechersystematik/n43</marc:subfield>
		</marc:datafield>
		<marc:datafield tag="650" ind1=" " ind2="4">
			<marc:subfield code="a">Mathematik, Naturwissenschaften</marc:subfield>
			<marc:subfield code="0">https://w3id.org/kim/hochschulfaechersystematik/n4</marc:subfield>
		</marc:datafield>
		<marc:datafield tag="650" ind1=" " ind2="4">
			<marc:subfield code="a">Ingenieurwissenschaften</marc:subfield>
			<marc:subfield code="0">https://w3id.org/kim/hochschulfaechersystematik/n8</marc:subfield>
		</marc:datafield>
		<marc:datafield tag="653" ind1=" " ind2=" ">
			<marc:subfield code="a">Geoinformatik (Geowissenschaften, Geomatik)</marc:subfield>
		</marc:datafield>
		<marc:datafield tag="653" ind1=" " ind2=" ">
			<marc:subfield code="a">ArcGIS</marc:subfield>
		</marc:datafield>
		<marc:datafield tag="653" ind1=" " ind2=" ">
			<marc:subfield code="a">Geoinformationssystem (Raumbezogenes Informationssystem, GIS)</marc:subfield>
		</marc:datafield>
		<marc:datafield tag="655" ind1=" " ind2="4">
			<marc:subfield code="a">Video</marc:subfield>
		</marc:datafield>
		<marc:datafield tag="856" ind1="4" ind2="0">
			<marc:subfield code="u">https://oersi.org/resources/aHR0cHM6Ly93d3cueW91dHViZS5jb20vd2F0Y2g_dj1kYUxnc1BTdkQ5QQ==</marc:subfield>
			<marc:subfield code="x">Aggregator</marc:subfield>
			<marc:subfield code="z">kostenfrei</marc:subfield>
		</marc:datafield>
		<marc:datafield tag="856" ind1="4" ind2="0">
			<marc:subfield code="u">https://www.youtube.com/watch?v=daLgsPSvD9A</marc:subfield>
			<marc:subfield code="r">https://creativecommons.org/licenses/by-nd/4.0</marc:subfield>
			<marc:subfield code="z">kostenfrei</marc:subfield>
			<marc:subfield code="7">0</marc:subfield>
		</marc:datafield>
		<marc:datafield tag="856" ind1="4" ind2="0">
			<marc:subfield code="u">https://www.zoerr.de/edu-sharing/components/render/52690ab1-0e8c-4ecb-885d-6a1626aa5ac8</marc:subfield>
			<marc:subfield code="r">https://creativecommons.org/licenses/by-nd/4.0</marc:subfield>
			<marc:subfield code="z">kostenfrei</marc:subfield>
			<marc:subfield code="7">0</marc:subfield>
		</marc:datafield>
		<marc:datafield tag="380" ind1=" " ind2=" ">
			<marc:subfield code="a">Open educational resources</marc:subfield>
			<marc:subfield code="2">lcsh</marc:subfield>
		</marc:datafield>
		<marc:datafield tag="653" ind1=" " ind2="6">
			<marc:subfield code="a">OER</marc:subfield>
		</marc:datafield>
		<marc:datafield tag="655" ind1=" " ind2="0">
			<marc:subfield code="a">Open educational resources</marc:subfield>
		</marc:datafield>
	</marc:record>

</marc:collection>
