<?xml version="1.0" encoding="UTF-8"?>
<marc:collection xmlns:marc="http://www.loc.gov/MARC21/slim" xmlns:xsi="http://www.w3.org/2001/XMLSchema-instance" xsi:schemaLocation="http://www.loc.gov/MARC21/slim http://www.loc.gov/standards/marcxml/schema/MARC21slim.xsd">
	<marc:record>
		<marc:leader>00000cam a2200000   4500</marc:leader>
		<marc:controlfield tag="001">oersi:aHR0cDovL3d3dy53aXJ0c2NoYWZ0c2V0aGlrLmJpei9VbXdlbHRCYW5r</marc:controlfield>
		<marc:controlfield tag="005">00000000000000.0</marc:controlfield>
		<marc:controlfield tag="007">cr</marc:controlfield>
		<marc:controlfield tag="008">240228t2023||||xx#|||||o|||||||||||eng||</marc:controlfield>
		<marc:datafield tag="264" ind1=" " ind2="0">
			<marc:subfield code="c">2023</marc:subfield>
		</marc:datafield>
		<marc:datafield tag="264" ind1=" " ind2="1">
			<marc:subfield code="b">Harald Bolsinger</marc:subfield>
		</marc:datafield>
		<marc:datafield tag="040" ind1=" " ind2=" ">
			<marc:subfield code="b">ger</marc:subfield>
		</marc:datafield>
		<marc:datafield tag="100" ind1="1" ind2=" ">
			<marc:subfield code="a">Harald Bolsinger</marc:subfield>
		</marc:datafield>
		<marc:datafield tag="700" ind1="1" ind2=" ">
			<marc:subfield code="a">Namensnennung</marc:subfield>
		</marc:datafield>
		<marc:datafield tag="700" ind1="1" ind2=" ">
			<marc:subfield code="a">Nicht-kommerziell</marc:subfield>
		</marc:datafield>
		<marc:datafield tag="700" ind1="1" ind2=" ">
			<marc:subfield code="a">Keine Bearbeitung.</marc:subfield>
		</marc:datafield>
		<marc:datafield tag="245" ind1="1" ind2="0">
			<marc:subfield code="a">Sustainability as Core Business</marc:subfield>
		</marc:datafield>
		<marc:datafield tag="300" ind1=" " ind2=" ">
			<marc:subfield code="a">1 Online-Ressource</marc:subfield>
		</marc:datafield>
		<marc:datafield tag="336" ind1=" " ind2=" ">
			<marc:subfield code="a">text</marc:subfield>
			<marc:subfield code="b">txt</marc:subfield>
			<marc:subfield code="2">rdacontent</marc:subfield>
		</marc:datafield>
		<marc:datafield tag="337" ind1=" " ind2=" ">
			<marc:subfield code="a">computer</marc:subfield>
			<marc:subfield code="b">c</marc:subfield>
			<marc:subfield code="2">rdamedia</marc:subfield>
		</marc:datafield>
		<marc:datafield tag="338" ind1=" " ind2=" ">
			<marc:subfield code="a">online resource</marc:subfield>
			<marc:subfield code="b">cr</marc:subfield>
			<marc:subfield code="2">rdacarrier</marc:subfield>
		</marc:datafield>
		<marc:datafield tag="506" ind1=" " ind2=" ">
			<marc:subfield code="a">keine Anmeldung erforderlich</marc:subfield>
		</marc:datafield>
		<marc:datafield tag="520" ind1="2" ind2=" ">
			<marc:subfield code="a">This case study aims to take an integrated look at sustainable corporate/organizational culture development and innovation generation through the implementation of the Agenda 2030 goals in a bank. The bank under consideration has changed its articles of association and is fully aligning itself with sustainability based on the SDGs. The procedure is explained from an internal perspective by the chairman of the environmental council of UmweltBank AG and supplemented with the experiences of others significantly involved in the change process.</marc:subfield>
		</marc:datafield>
		<marc:datafield tag="650" ind1=" " ind2="4">
			<marc:subfield code="a">Interdisziplinäre Studien (Schwerpunkt Rechts-, Wirtschafts- und Sozialwissenschaften)</marc:subfield>
			<marc:subfield code="0">https://w3id.org/kim/hochschulfaechersystematik/n030</marc:subfield>
		</marc:datafield>
		<marc:datafield tag="650" ind1=" " ind2="4">
			<marc:subfield code="a">Soziologie</marc:subfield>
			<marc:subfield code="0">https://w3id.org/kim/hochschulfaechersystematik/n149</marc:subfield>
		</marc:datafield>
		<marc:datafield tag="650" ind1=" " ind2="4">
			<marc:subfield code="a">Studienbereich Wirtschaftsingenieurwesen mit ingenieurwissenschaftlichem Schwerpunkt</marc:subfield>
			<marc:subfield code="0">https://w3id.org/kim/hochschulfaechersystematik/n70</marc:subfield>
		</marc:datafield>
		<marc:datafield tag="650" ind1=" " ind2="4">
			<marc:subfield code="a">Finanzverwaltung</marc:subfield>
			<marc:subfield code="0">https://w3id.org/kim/hochschulfaechersystematik/n266</marc:subfield>
		</marc:datafield>
		<marc:datafield tag="650" ind1=" " ind2="4">
			<marc:subfield code="a">Interdisziplinäre Studien (Schwerpunkt Ingenieurwissenschaften)</marc:subfield>
			<marc:subfield code="0">https://w3id.org/kim/hochschulfaechersystematik/n072</marc:subfield>
		</marc:datafield>
		<marc:datafield tag="650" ind1=" " ind2="4">
			<marc:subfield code="a">Holzwirtschaft</marc:subfield>
			<marc:subfield code="0">https://w3id.org/kim/hochschulfaechersystematik/n075</marc:subfield>
		</marc:datafield>
		<marc:datafield tag="650" ind1=" " ind2="4">
			<marc:subfield code="a">Berufs- und Wirtschaftspädagogik</marc:subfield>
			<marc:subfield code="0">https://w3id.org/kim/hochschulfaechersystematik/n270</marc:subfield>
		</marc:datafield>
		<marc:datafield tag="650" ind1=" " ind2="4">
			<marc:subfield code="a">Bankwesen</marc:subfield>
			<marc:subfield code="0">https://w3id.org/kim/hochschulfaechersystematik/n265</marc:subfield>
		</marc:datafield>
		<marc:datafield tag="650" ind1=" " ind2="4">
			<marc:subfield code="a">Wirtschaftsingenieurwesen mit wirtschaftswissenschaftlichem Schwerpunkt</marc:subfield>
			<marc:subfield code="0">https://w3id.org/kim/hochschulfaechersystematik/n179</marc:subfield>
		</marc:datafield>
		<marc:datafield tag="650" ind1=" " ind2="4">
			<marc:subfield code="a">Betriebswirtschaftslehre</marc:subfield>
			<marc:subfield code="0">https://w3id.org/kim/hochschulfaechersystematik/n021</marc:subfield>
		</marc:datafield>
		<marc:datafield tag="650" ind1=" " ind2="4">
			<marc:subfield code="a">Studienbereich Wirtschaftswissenschaften</marc:subfield>
			<marc:subfield code="0">https://w3id.org/kim/hochschulfaechersystematik/n30</marc:subfield>
		</marc:datafield>
		<marc:datafield tag="650" ind1=" " ind2="4">
			<marc:subfield code="a">Sozialwissenschaften</marc:subfield>
			<marc:subfield code="0">https://w3id.org/kim/hochschulfaechersystematik/n148</marc:subfield>
		</marc:datafield>
		<marc:datafield tag="650" ind1=" " ind2="4">
			<marc:subfield code="a">Studienbereich Wirtschaftsingenieurwesen mit wirtschaftswissenschaftlichem Schwerpunkt</marc:subfield>
			<marc:subfield code="0">https://w3id.org/kim/hochschulfaechersystematik/n31</marc:subfield>
		</marc:datafield>
		<marc:datafield tag="650" ind1=" " ind2="4">
			<marc:subfield code="a">Wirtschaftsingenieurwesen mit ingenieurwissenschaftlichem Schwerpunkt</marc:subfield>
			<marc:subfield code="0">https://w3id.org/kim/hochschulfaechersystematik/n370</marc:subfield>
		</marc:datafield>
		<marc:datafield tag="650" ind1=" " ind2="4">
			<marc:subfield code="a">Erwachsenenbildung und außerschulische Jugendbildung</marc:subfield>
			<marc:subfield code="0">https://w3id.org/kim/hochschulfaechersystematik/n321</marc:subfield>
		</marc:datafield>
		<marc:datafield tag="650" ind1=" " ind2="4">
			<marc:subfield code="a">Naturschutz</marc:subfield>
			<marc:subfield code="0">https://w3id.org/kim/hochschulfaechersystematik/n064</marc:subfield>
		</marc:datafield>
		<marc:datafield tag="650" ind1=" " ind2="4">
			<marc:subfield code="a">Wirtschaftswissenschaften</marc:subfield>
			<marc:subfield code="0">https://w3id.org/kim/hochschulfaechersystematik/n184</marc:subfield>
		</marc:datafield>
		<marc:datafield tag="650" ind1=" " ind2="4">
			<marc:subfield code="a">Sozialwissenschaften/Soziologie</marc:subfield>
			<marc:subfield code="0">https://w3id.org/kim/hochschulfaechersystematik/n26</marc:subfield>
		</marc:datafield>
		<marc:datafield tag="650" ind1=" " ind2="4">
			<marc:subfield code="a">Forstwissenschaft, Holzwirtschaft</marc:subfield>
			<marc:subfield code="0">https://w3id.org/kim/hochschulfaechersystematik/n59</marc:subfield>
		</marc:datafield>
		<marc:datafield tag="650" ind1=" " ind2="4">
			<marc:subfield code="a">Rechts-, Wirtschafts- und Sozialwissenschaften</marc:subfield>
			<marc:subfield code="0">https://w3id.org/kim/hochschulfaechersystematik/n3</marc:subfield>
		</marc:datafield>
		<marc:datafield tag="650" ind1=" " ind2="4">
			<marc:subfield code="a">Landespflege, Umweltgestaltung</marc:subfield>
			<marc:subfield code="0">https://w3id.org/kim/hochschulfaechersystematik/n57</marc:subfield>
		</marc:datafield>
		<marc:datafield tag="650" ind1=" " ind2="4">
			<marc:subfield code="a">Rechts-, Wirtschafts- und Sozialwissenschaften allgemein</marc:subfield>
			<marc:subfield code="0">https://w3id.org/kim/hochschulfaechersystematik/n23</marc:subfield>
		</marc:datafield>
		<marc:datafield tag="650" ind1=" " ind2="4">
			<marc:subfield code="a">Verwaltungswissenschaften</marc:subfield>
			<marc:subfield code="0">https://w3id.org/kim/hochschulfaechersystematik/n29</marc:subfield>
		</marc:datafield>
		<marc:datafield tag="650" ind1=" " ind2="4">
			<marc:subfield code="a">Ingenieurwesen allgemein</marc:subfield>
			<marc:subfield code="0">https://w3id.org/kim/hochschulfaechersystematik/n61</marc:subfield>
		</marc:datafield>
		<marc:datafield tag="650" ind1=" " ind2="4">
			<marc:subfield code="a">Ingenieurwissenschaften</marc:subfield>
			<marc:subfield code="0">https://w3id.org/kim/hochschulfaechersystematik/n8</marc:subfield>
		</marc:datafield>
		<marc:datafield tag="650" ind1=" " ind2="4">
			<marc:subfield code="a">Erziehungswissenschaften</marc:subfield>
			<marc:subfield code="0">https://w3id.org/kim/hochschulfaechersystematik/n33</marc:subfield>
		</marc:datafield>
		<marc:datafield tag="650" ind1=" " ind2="4">
			<marc:subfield code="a">Agrar-, Forst- und Ernährungswissenschaften, Veterinärmedizin</marc:subfield>
			<marc:subfield code="0">https://w3id.org/kim/hochschulfaechersystematik/n7</marc:subfield>
		</marc:datafield>
		<marc:datafield tag="653" ind1=" " ind2=" ">
			<marc:subfield code="a">Bank</marc:subfield>
		</marc:datafield>
		<marc:datafield tag="653" ind1=" " ind2=" ">
			<marc:subfield code="a">Kredit</marc:subfield>
		</marc:datafield>
		<marc:datafield tag="653" ind1=" " ind2=" ">
			<marc:subfield code="a">Innovation</marc:subfield>
		</marc:datafield>
		<marc:datafield tag="653" ind1=" " ind2=" ">
			<marc:subfield code="a">Auszeichnung für umweltbewusste Unternehmensführung</marc:subfield>
		</marc:datafield>
		<marc:datafield tag="653" ind1=" " ind2=" ">
			<marc:subfield code="a">Finanzberatung</marc:subfield>
		</marc:datafield>
		<marc:datafield tag="653" ind1=" " ind2=" ">
			<marc:subfield code="a">Ethische Geldanlage</marc:subfield>
		</marc:datafield>
		<marc:datafield tag="653" ind1=" " ind2=" ">
			<marc:subfield code="a">Nachhaltigkeit</marc:subfield>
		</marc:datafield>
		<marc:datafield tag="653" ind1=" " ind2=" ">
			<marc:subfield code="a">Sustainable Development Goals</marc:subfield>
		</marc:datafield>
		<marc:datafield tag="653" ind1=" " ind2=" ">
			<marc:subfield code="a">Wertemanagement</marc:subfield>
		</marc:datafield>
		<marc:datafield tag="653" ind1=" " ind2=" ">
			<marc:subfield code="a">CSR</marc:subfield>
		</marc:datafield>
		<marc:datafield tag="653" ind1=" " ind2=" ">
			<marc:subfield code="a">Lernende Organisation</marc:subfield>
		</marc:datafield>
		<marc:datafield tag="653" ind1=" " ind2=" ">
			<marc:subfield code="a">Sinnzentrierte Unternehmensführung</marc:subfield>
		</marc:datafield>
		<marc:datafield tag="653" ind1=" " ind2=" ">
			<marc:subfield code="a">Corporate Social Responsibility</marc:subfield>
		</marc:datafield>
		<marc:datafield tag="653" ind1=" " ind2=" ">
			<marc:subfield code="a">Sustainable Finance</marc:subfield>
		</marc:datafield>
		<marc:datafield tag="653" ind1=" " ind2=" ">
			<marc:subfield code="a">Klimaschutz</marc:subfield>
		</marc:datafield>
		<marc:datafield tag="653" ind1=" " ind2=" ">
			<marc:subfield code="a">Organisationsentwicklung</marc:subfield>
		</marc:datafield>
		<marc:datafield tag="653" ind1=" " ind2=" ">
			<marc:subfield code="a">Baufinanzierung</marc:subfield>
		</marc:datafield>
		<marc:datafield tag="653" ind1=" " ind2=" ">
			<marc:subfield code="a">Nachhaltigkeitsstrategieentwicklung</marc:subfield>
		</marc:datafield>
		<marc:datafield tag="653" ind1=" " ind2=" ">
			<marc:subfield code="a">Nachhaltigkeitsmanagement</marc:subfield>
		</marc:datafield>
		<marc:datafield tag="653" ind1=" " ind2=" ">
			<marc:subfield code="a">Innovationsmanagement</marc:subfield>
		</marc:datafield>
		<marc:datafield tag="653" ind1=" " ind2=" ">
			<marc:subfield code="a">Purpose</marc:subfield>
		</marc:datafield>
		<marc:datafield tag="653" ind1=" " ind2=" ">
			<marc:subfield code="a">Geld</marc:subfield>
		</marc:datafield>
		<marc:datafield tag="653" ind1=" " ind2=" ">
			<marc:subfield code="a">Umweltschutz</marc:subfield>
		</marc:datafield>
		<marc:datafield tag="653" ind1=" " ind2=" ">
			<marc:subfield code="a">Umwelt</marc:subfield>
		</marc:datafield>
		<marc:datafield tag="653" ind1=" " ind2=" ">
			<marc:subfield code="a">Changemanagement</marc:subfield>
		</marc:datafield>
		<marc:datafield tag="653" ind1=" " ind2=" ">
			<marc:subfield code="a">Unternehmensethik</marc:subfield>
		</marc:datafield>
		<marc:datafield tag="653" ind1=" " ind2=" ">
			<marc:subfield code="a">Bankmanagement</marc:subfield>
		</marc:datafield>
		<marc:datafield tag="653" ind1=" " ind2=" ">
			<marc:subfield code="a">Nachhaltige Unternehmensführung</marc:subfield>
		</marc:datafield>
		<marc:datafield tag="653" ind1=" " ind2=" ">
			<marc:subfield code="a">Fallstudie</marc:subfield>
		</marc:datafield>
		<marc:datafield tag="655" ind1=" " ind2="4">
			<marc:subfield code="a">Fallstudie</marc:subfield>
		</marc:datafield>
		<marc:datafield tag="856" ind1="4" ind2="0">
			<marc:subfield code="u">https://oersi.org/resources/aHR0cDovL3d3dy53aXJ0c2NoYWZ0c2V0aGlrLmJpei9VbXdlbHRCYW5r</marc:subfield>
			<marc:subfield code="x">Aggregator</marc:subfield>
			<marc:subfield code="z">kostenfrei</marc:subfield>
		</marc:datafield>
		<marc:datafield tag="856" ind1="4" ind2="0">
			<marc:subfield code="u">http://www.wirtschaftsethik.biz/UmweltBank</marc:subfield>
			<marc:subfield code="r">https://creativecommons.org/licenses/by-nc-nd/4.0</marc:subfield>
			<marc:subfield code="z">kostenfrei</marc:subfield>
			<marc:subfield code="7">0</marc:subfield>
		</marc:datafield>
		<marc:datafield tag="856" ind1="4" ind2="0">
			<marc:subfield code="u">https://oer.vhb.org/edu-sharing/components/render/cec174e5-8e9f-4d73-b349-dbd0f7d2b9e1</marc:subfield>
			<marc:subfield code="r">https://creativecommons.org/licenses/by-nc-nd/4.0</marc:subfield>
			<marc:subfield code="z">kostenfrei</marc:subfield>
			<marc:subfield code="7">0</marc:subfield>
		</marc:datafield>
		<marc:datafield tag="380" ind1=" " ind2=" ">
			<marc:subfield code="a">Open educational resources</marc:subfield>
			<marc:subfield code="2">lcsh</marc:subfield>
		</marc:datafield>
		<marc:datafield tag="653" ind1=" " ind2="6">
			<marc:subfield code="a">OER</marc:subfield>
		</marc:datafield>
		<marc:datafield tag="655" ind1=" " ind2="0">
			<marc:subfield code="a">Open educational resources</marc:subfield>
		</marc:datafield>
	</marc:record>

</marc:collection>
