<?xml version="1.0" encoding="UTF-8"?>
<marc:collection xmlns:marc="http://www.loc.gov/MARC21/slim" xmlns:xsi="http://www.w3.org/2001/XMLSchema-instance" xsi:schemaLocation="http://www.loc.gov/MARC21/slim http://www.loc.gov/standards/marcxml/schema/MARC21slim.xsd">
	<marc:record>
		<marc:leader>00000cam a2200000   4500</marc:leader>
		<marc:controlfield tag="001">oersi:aHR0cDovL29wZW5pbGlhcy51bmktZ29ldHRpbmdlbi5kZS9vcGVuaWxpYXMvZ290b19vcGVuaWxpYXNfY3JzXzExODkuaHRtbA==</marc:controlfield>
		<marc:controlfield tag="005">00000000000000.0</marc:controlfield>
		<marc:controlfield tag="007">cr</marc:controlfield>
		<marc:controlfield tag="008">240228t||||||||xx#|||||o|||||||||||ger||</marc:controlfield>
		<marc:datafield tag="040" ind1=" " ind2=" ">
			<marc:subfield code="b">ger</marc:subfield>
		</marc:datafield>
		<marc:datafield tag="100" ind1="1" ind2=" ">
			<marc:subfield code="a">Jendrik Schellhorn</marc:subfield>
		</marc:datafield>
		<marc:datafield tag="245" ind1="1" ind2="0">
			<marc:subfield code="a">Einführung in die Linux-Kommandozeile</marc:subfield>
		</marc:datafield>
		<marc:datafield tag="300" ind1=" " ind2=" ">
			<marc:subfield code="a">1 Online-Ressource</marc:subfield>
		</marc:datafield>
		<marc:datafield tag="336" ind1=" " ind2=" ">
			<marc:subfield code="a">text</marc:subfield>
			<marc:subfield code="b">txt</marc:subfield>
			<marc:subfield code="2">rdacontent</marc:subfield>
		</marc:datafield>
		<marc:datafield tag="337" ind1=" " ind2=" ">
			<marc:subfield code="a">computer</marc:subfield>
			<marc:subfield code="b">c</marc:subfield>
			<marc:subfield code="2">rdamedia</marc:subfield>
		</marc:datafield>
		<marc:datafield tag="338" ind1=" " ind2=" ">
			<marc:subfield code="a">online resource</marc:subfield>
			<marc:subfield code="b">cr</marc:subfield>
			<marc:subfield code="2">rdacarrier</marc:subfield>
		</marc:datafield>
		<marc:datafield tag="506" ind1=" " ind2=" ">
			<marc:subfield code="a">keine Anmeldung erforderlich</marc:subfield>
		</marc:datafield>
		<marc:datafield tag="520" ind1="2" ind2=" ">
			<marc:subfield code="a">In diesem Kurs geht es darum die Basics für den Umgang mit der Linux-Kommandozeile kennenzulernen. Ihr sollt die Fähigkeit erwerben, um euch im Dateisystem bewegen zu können, Dateien und Ordner zu erstellen, bearbeiten und löschen zu können. Darüber hinaus werden einige Besonderheiten von Linux beschrieben. Der Kurs verlangt keine besonderen Kenntnisse oder technische Voraussetzungen. Es empfiehlt sich allerdings anhand einer Linux-Umgebung parallel zum Kurs mit den erlernten Befehle auch praktisch herumzuspielen. Wenn ihr über keine Linux-Umgebung verfügt, dann könnt ihr auch Web-basierte Pendants per Suchmaschine mit dem Schlagwort &quot;online linux terminal&quot; finden. Am Ende jeder Lektion werden auch einige Lernfragen gestellt, anhand derer ihr alternativ euren Lernfortschritt rein theoretisch überprüfen könnt. Viel Spaß bei der Bearbeitung und viel Erfolg beim Lernen. Dieser Kurs gehört zu den Selbstlernmaterialien, die im Rahmen des von MWK geförderten Projektes &quot;Data Science Region Südniedersachsen&quot; entwickelt worden sind.</marc:subfield>
		</marc:datafield>
		<marc:datafield tag="650" ind1=" " ind2="4">
			<marc:subfield code="a">Mathematik, Naturwissenschaften</marc:subfield>
			<marc:subfield code="0">https://w3id.org/kim/hochschulfaechersystematik/n4</marc:subfield>
		</marc:datafield>
		<marc:datafield tag="653" ind1=" " ind2=" ">
			<marc:subfield code="a">Linux</marc:subfield>
		</marc:datafield>
		<marc:datafield tag="653" ind1=" " ind2=" ">
			<marc:subfield code="a">Informatik</marc:subfield>
		</marc:datafield>
		<marc:datafield tag="655" ind1=" " ind2="4">
			<marc:subfield code="a">Präsentation</marc:subfield>
		</marc:datafield>
		<marc:datafield tag="655" ind1=" " ind2="4">
			<marc:subfield code="a">Lernkontrolle</marc:subfield>
		</marc:datafield>
		<marc:datafield tag="856" ind1="4" ind2="0">
			<marc:subfield code="u">https://oersi.org/resources/aHR0cDovL29wZW5pbGlhcy51bmktZ29ldHRpbmdlbi5kZS9vcGVuaWxpYXMvZ290b19vcGVuaWxpYXNfY3JzXzExODkuaHRtbA==</marc:subfield>
			<marc:subfield code="x">Aggregator</marc:subfield>
			<marc:subfield code="z">kostenfrei</marc:subfield>
		</marc:datafield>
		<marc:datafield tag="856" ind1="4" ind2="0">
			<marc:subfield code="u">http://openilias.uni-goettingen.de/openilias/goto_openilias_crs_1189.html</marc:subfield>
			<marc:subfield code="r">https://creativecommons.org/licenses/by-sa/4.0</marc:subfield>
			<marc:subfield code="z">kostenfrei</marc:subfield>
			<marc:subfield code="7">0</marc:subfield>
		</marc:datafield>
		<marc:datafield tag="856" ind1="4" ind2="0">
			<marc:subfield code="u">https://www.twillo.de/edu-sharing/components/render/01b175b7-00b0-466f-b9df-2c809d818969</marc:subfield>
			<marc:subfield code="r">https://creativecommons.org/licenses/by-sa/4.0</marc:subfield>
			<marc:subfield code="z">kostenfrei</marc:subfield>
			<marc:subfield code="7">0</marc:subfield>
		</marc:datafield>
		<marc:datafield tag="380" ind1=" " ind2=" ">
			<marc:subfield code="a">Open educational resources</marc:subfield>
			<marc:subfield code="2">lcsh</marc:subfield>
		</marc:datafield>
		<marc:datafield tag="653" ind1=" " ind2="6">
			<marc:subfield code="a">OER</marc:subfield>
		</marc:datafield>
		<marc:datafield tag="655" ind1=" " ind2="0">
			<marc:subfield code="a">Open educational resources</marc:subfield>
		</marc:datafield>
	</marc:record>

</marc:collection>
