<?xml version="1.0" encoding="UTF-8"?>
<marc:collection xmlns:marc="http://www.loc.gov/MARC21/slim" xmlns:xsi="http://www.w3.org/2001/XMLSchema-instance" xsi:schemaLocation="http://www.loc.gov/MARC21/slim http://www.loc.gov/standards/marcxml/schema/MARC21slim.xsd">
	<marc:record>
		<marc:leader>00000cam a2200000   4500</marc:leader>
		<marc:controlfield tag="001">oersi:aHR0cHM6Ly9vY3cubWl0LmVkdS9jb3Vyc2VzLzE4LTEyNS1tZWFzdXJlLWFuZC1pbnRlZ3JhdGlvbi1mYWxsLTIwMDM=</marc:controlfield>
		<marc:controlfield tag="005">00000000000000.0</marc:controlfield>
		<marc:controlfield tag="007">cr</marc:controlfield>
		<marc:controlfield tag="008">240228t||||||||xx#|||||o|||||||||||eng||</marc:controlfield>
		<marc:datafield tag="040" ind1=" " ind2=" ">
			<marc:subfield code="b">eng</marc:subfield>
		</marc:datafield>
		<marc:datafield tag="700" ind1="1" ind2=" ">
			<marc:subfield code="a">Jeff Viaclovsky</marc:subfield>
		</marc:datafield>
		<marc:datafield tag="110" ind1="2" ind2=" ">
			<marc:subfield code="a">Massachusetts Institute of Technology</marc:subfield>
		</marc:datafield>
		<marc:datafield tag="245" ind1="1" ind2="0">
			<marc:subfield code="a">Measure and Integration</marc:subfield>
		</marc:datafield>
		<marc:datafield tag="300" ind1=" " ind2=" ">
			<marc:subfield code="a">1 Online-Ressource</marc:subfield>
		</marc:datafield>
		<marc:datafield tag="336" ind1=" " ind2=" ">
			<marc:subfield code="a">text</marc:subfield>
			<marc:subfield code="b">txt</marc:subfield>
			<marc:subfield code="2">rdacontent</marc:subfield>
		</marc:datafield>
		<marc:datafield tag="337" ind1=" " ind2=" ">
			<marc:subfield code="a">computer</marc:subfield>
			<marc:subfield code="b">c</marc:subfield>
			<marc:subfield code="2">rdamedia</marc:subfield>
		</marc:datafield>
		<marc:datafield tag="338" ind1=" " ind2=" ">
			<marc:subfield code="a">online resource</marc:subfield>
			<marc:subfield code="b">cr</marc:subfield>
			<marc:subfield code="2">rdacarrier</marc:subfield>
		</marc:datafield>
		<marc:datafield tag="506" ind1=" " ind2=" ">
			<marc:subfield code="a">keine Anmeldung erforderlich</marc:subfield>
		</marc:datafield>
		<marc:datafield tag="520" ind1="2" ind2=" ">
			<marc:subfield code="a">This graduate-level course covers Lebesgue&apos;s integration theory with applications to analysis, including an introduction to convolution and the Fourier transform.</marc:subfield>
		</marc:datafield>
		<marc:datafield tag="650" ind1=" " ind2="4">
			<marc:subfield code="a">Mathematik</marc:subfield>
			<marc:subfield code="0">https://w3id.org/kim/hochschulfaechersystematik/n37</marc:subfield>
		</marc:datafield>
		<marc:datafield tag="650" ind1=" " ind2="4">
			<marc:subfield code="a">Mathematik, Naturwissenschaften</marc:subfield>
			<marc:subfield code="0">https://w3id.org/kim/hochschulfaechersystematik/n4</marc:subfield>
		</marc:datafield>
		<marc:datafield tag="653" ind1=" " ind2=" ">
			<marc:subfield code="a">Mathematics</marc:subfield>
		</marc:datafield>
		<marc:datafield tag="653" ind1=" " ind2=" ">
			<marc:subfield code="a">Calculus</marc:subfield>
		</marc:datafield>
		<marc:datafield tag="653" ind1=" " ind2=" ">
			<marc:subfield code="a">Mathematical Analysis</marc:subfield>
		</marc:datafield>
		<marc:datafield tag="655" ind1=" " ind2="4">
			<marc:subfield code="a">Kurs</marc:subfield>
		</marc:datafield>
		<marc:datafield tag="856" ind1="4" ind2="0">
			<marc:subfield code="u">https://oersi.org/resources/aHR0cHM6Ly9vY3cubWl0LmVkdS9jb3Vyc2VzLzE4LTEyNS1tZWFzdXJlLWFuZC1pbnRlZ3JhdGlvbi1mYWxsLTIwMDM=</marc:subfield>
			<marc:subfield code="x">Aggregator</marc:subfield>
			<marc:subfield code="z">kostenfrei</marc:subfield>
		</marc:datafield>
		<marc:datafield tag="856" ind1="4" ind2="0">
			<marc:subfield code="u">https://ocw.mit.edu/courses/18-125-measure-and-integration-fall-2003</marc:subfield>
			<marc:subfield code="r">https://creativecommons.org/licenses/by-nc-sa/4.0/</marc:subfield>
			<marc:subfield code="z">kostenfrei</marc:subfield>
			<marc:subfield code="7">0</marc:subfield>
		</marc:datafield>
		<marc:datafield tag="380" ind1=" " ind2=" ">
			<marc:subfield code="a">Open educational resources</marc:subfield>
			<marc:subfield code="2">lcsh</marc:subfield>
		</marc:datafield>
		<marc:datafield tag="653" ind1=" " ind2="6">
			<marc:subfield code="a">OER</marc:subfield>
		</marc:datafield>
		<marc:datafield tag="655" ind1=" " ind2="0">
			<marc:subfield code="a">Open educational resources</marc:subfield>
		</marc:datafield>
	</marc:record>

</marc:collection>
